IS415 blog: Hands-on Exercise 3
…
2.4.2 Data Wrangling (For my own understanding)

Filter and group_by

popdata2020v2 <- popdata %>%
  filter(Time == 2020) %>%
  group_by(PA, SZ, AG) 
popdata2020v2

# A tibble: 100,928 x 7
# Groups:   PA, SZ, AG [6,308]
   PA         SZ                     AG     Sex     TOD      Pop  Time
   <chr>      <chr>                  <chr>  <chr>   <chr>  <dbl> <dbl>
 1 Ang Mo Kio Ang Mo Kio Town Centre 0_to_4 Males   HDB 1~     0  2020
 2 Ang Mo Kio Ang Mo Kio Town Centre 0_to_4 Males   HDB 3~    10  2020
 3 Ang Mo Kio Ang Mo Kio Town Centre 0_to_4 Males   HDB 4~    10  2020
 4 Ang Mo Kio Ang Mo Kio Town Centre 0_to_4 Males   HDB 5~    20  2020
 5 Ang Mo Kio Ang Mo Kio Town Centre 0_to_4 Males   HUDC ~     0  2020
 6 Ang Mo Kio Ang Mo Kio Town Centre 0_to_4 Males   Lande~     0  2020
 7 Ang Mo Kio Ang Mo Kio Town Centre 0_to_4 Males   Condo~    50  2020
 8 Ang Mo Kio Ang Mo Kio Town Centre 0_to_4 Males   Others     0  2020
 9 Ang Mo Kio Ang Mo Kio Town Centre 0_to_4 Females HDB 1~     0  2020
10 Ang Mo Kio Ang Mo Kio Town Centre 0_to_4 Females HDB 3~    10  2020
# ... with 100,918 more rows

summarise

popdata2020v2 <- popdata2020v2 %>%
  summarise(`POP` = sum(`Pop`))
popdata2020v2

# A tibble: 6,308 x 4
# Groups:   PA, SZ [332]
   PA         SZ                     AG         POP
   <chr>      <chr>                  <chr>    <dbl>
 1 Ang Mo Kio Ang Mo Kio Town Centre 0_to_4     170
 2 Ang Mo Kio Ang Mo Kio Town Centre 10_to_14   280
 3 Ang Mo Kio Ang Mo Kio Town Centre 15_to_19   340
 4 Ang Mo Kio Ang Mo Kio Town Centre 20_to_24   270
 5 Ang Mo Kio Ang Mo Kio Town Centre 25_to_29   260
 6 Ang Mo Kio Ang Mo Kio Town Centre 30_to_34   310
 7 Ang Mo Kio Ang Mo Kio Town Centre 35_to_39   330
 8 Ang Mo Kio Ang Mo Kio Town Centre 40_to_44   400
 9 Ang Mo Kio Ang Mo Kio Town Centre 45_to_49   480
10 Ang Mo Kio Ang Mo Kio Town Centre 5_to_9     230
# ... with 6,298 more rows

ungroup

Can see that there is no longer this result # Groups: PA, SZ [332]

popdata2020v2 <- popdata2020v2 %>%
  ungroup()
popdata2020v2

# A tibble: 6,308 x 4
   PA         SZ                     AG         POP
   <chr>      <chr>                  <chr>    <dbl>
 1 Ang Mo Kio Ang Mo Kio Town Centre 0_to_4     170
 2 Ang Mo Kio Ang Mo Kio Town Centre 10_to_14   280
 3 Ang Mo Kio Ang Mo Kio Town Centre 15_to_19   340
 4 Ang Mo Kio Ang Mo Kio Town Centre 20_to_24   270
 5 Ang Mo Kio Ang Mo Kio Town Centre 25_to_29   260
 6 Ang Mo Kio Ang Mo Kio Town Centre 30_to_34   310
 7 Ang Mo Kio Ang Mo Kio Town Centre 35_to_39   330
 8 Ang Mo Kio Ang Mo Kio Town Centre 40_to_44   400
 9 Ang Mo Kio Ang Mo Kio Town Centre 45_to_49   480
10 Ang Mo Kio Ang Mo Kio Town Centre 5_to_9     230
# ... with 6,298 more rows
…
